-- Merging decision tree log ---
manifest
ADDED from C:\Users\KrasnousovVM\Desktop\SPPtest\Application\src\main\AndroidManifest.xml:4:1-39:12
INJECTED from C:\Users\KrasnousovVM\Desktop\SPPtest\Application\src\main\AndroidManifest.xml:4:1-39:12
INJECTED from C:\Users\KrasnousovVM\Desktop\SPPtest\Application\src\main\AndroidManifest.xml:4:1-39:12
MERGED from [com.android.support:support-v4:28.0.0] C:\Users\KrasnousovVM\.gradle\caches\transforms-1\files-1.1\support-v4-28.0.0.aar\0277d4b55e1064b4975feb2e12c086e8\AndroidManifest.xml:17:1-22:12
MERGED from [com.android.support:gridlayout-v7:28.0.0] C:\Users\KrasnousovVM\.gradle\caches\transforms-1\files-1.1\gridlayout-v7-28.0.0.aar\83530c3beba55766acab77c06570f9c0\AndroidManifest.xml:17:1-22:12
MERGED from [com.android.support:cardview-v7:28.0.0] C:\Users\KrasnousovVM\.gradle\caches\transforms-1\files-1.1\cardview-v7-28.0.0.aar\eb0eb91d00b26e6a85ff26e153049782\AndroidManifest.xml:17:1-22:12
MERGED from [com.android.support:appcompat-v7:28.0.0] C:\Users\KrasnousovVM\.gradle\caches\transforms-1\files-1.1\appcompat-v7-28.0.0.aar\4bcadea640c094cb993fb62aa500b7bc\AndroidManifest.xml:17:1-22:12
MERGED from [com.android.support:support-media-compat:28.0.0] C:\Users\KrasnousovVM\.gradle\caches\transforms-1\files-1.1\support-media-compat-28.0.0.aar\57c737e5700f5ac9c984ba164fda6c06\AndroidManifest.xml:17:1-22:12
MERGED from [com.android.support:support-fragment:28.0.0] C:\Users\KrasnousovVM\.gradle\caches\transforms-1\files-1.1\support-fragment-28.0.0.aar\d0990f1f12cd5036f5ce8022d1605522\AndroidManifest.xml:17:1-22:12
MERGED from [com.android.support:animated-vector-drawable:28.0.0] C:\Users\KrasnousovVM\.gradle\caches\transforms-1\files-1.1\animated-vector-drawable-28.0.0.aar\e905455cc72c30713b08e7e79ddd4481\AndroidManifest.xml:17:1-22:12
MERGED from [com.android.support:support-core-ui:28.0.0] C:\Users\KrasnousovVM\.gradle\caches\transforms-1\files-1.1\support-core-ui-28.0.0.aar\c1dc3fe48e14409ee7622749164c0e71\AndroidManifest.xml:17:1-22:12
MERGED from [com.android.support:support-core-utils:28.0.0] C:\Users\KrasnousovVM\.gradle\caches\transforms-1\files-1.1\support-core-utils-28.0.0.aar\e5896e9e846c91e1e824afc942d25c0d\AndroidManifest.xml:17:1-22:12
MERGED from [com.android.support:support-vector-drawable:28.0.0] C:\Users\KrasnousovVM\.gradle\caches\transforms-1\files-1.1\support-vector-drawable-28.0.0.aar\ec97d6953ffa1fc752709f6e3f5d8896\AndroidManifest.xml:17:1-22:12
MERGED from [com.android.support:loader:28.0.0] C:\Users\KrasnousovVM\.gradle\caches\transforms-1\files-1.1\loader-28.0.0.aar\bab09e5146163a046b285d06c2fe8cde\AndroidManifest.xml:17:1-22:12
MERGED from [com.android.support:viewpager:28.0.0] C:\Users\KrasnousovVM\.gradle\caches\transforms-1\files-1.1\viewpager-28.0.0.aar\f5f5f7aeeeb43ccd7aa786e1d7335fc6\AndroidManifest.xml:17:1-22:12
MERGED from [com.android.support:coordinatorlayout:28.0.0] C:\Users\KrasnousovVM\.gradle\caches\transforms-1\files-1.1\coordinatorlayout-28.0.0.aar\2942100bbce7da16cb7155abf7b7b7b3\AndroidManifest.xml:17:1-22:12
MERGED from [com.android.support:drawerlayout:28.0.0] C:\Users\KrasnousovVM\.gradle\caches\transforms-1\files-1.1\drawerlayout-28.0.0.aar\4421c3cc81bdb327c9aadaa796867b2e\AndroidManifest.xml:17:1-22:12
MERGED from [com.android.support:slidingpanelayout:28.0.0] C:\Users\KrasnousovVM\.gradle\caches\transforms-1\files-1.1\slidingpanelayout-28.0.0.aar\7c2ccbbcdec8d54e8982ae5a7258a281\AndroidManifest.xml:17:1-22:12
MERGED from [com.android.support:customview:28.0.0] C:\Users\KrasnousovVM\.gradle\caches\transforms-1\files-1.1\customview-28.0.0.aar\4bfc0e25710dd9b1e95971bdb9d683ab\AndroidManifest.xml:17:1-22:12
MERGED from [com.android.support:swiperefreshlayout:28.0.0] C:\Users\KrasnousovVM\.gradle\caches\transforms-1\files-1.1\swiperefreshlayout-28.0.0.aar\71a9822e7b34919046b6cab294bcf280\AndroidManifest.xml:17:1-22:12
MERGED from [com.android.support:asynclayoutinflater:28.0.0] C:\Users\KrasnousovVM\.gradle\caches\transforms-1\files-1.1\asynclayoutinflater-28.0.0.aar\59e7b0a40d14d8f7ec0086e34f3df656\AndroidManifest.xml:17:1-22:12
MERGED from [com.android.support:support-compat:28.0.0] C:\Users\KrasnousovVM\.gradle\caches\transforms-1\files-1.1\support-compat-28.0.0.aar\11e4c36544f77bbb7e44d76f97ab51ee\AndroidManifest.xml:17:1-24:12
MERGED from [com.android.support:versionedparcelable:28.0.0] C:\Users\KrasnousovVM\.gradle\caches\transforms-1\files-1.1\versionedparcelable-28.0.0.aar\26b73e0884b672588e92c63c086e6d86\AndroidManifest.xml:17:1-25:12
MERGED from [com.android.support:cursoradapter:28.0.0] C:\Users\KrasnousovVM\.gradle\caches\transforms-1\files-1.1\cursoradapter-28.0.0.aar\2e179ff4b1454da7f0933687ef3f6d60\AndroidManifest.xml:17:1-22:12
MERGED from [android.arch.lifecycle:runtime:1.1.1] C:\Users\KrasnousovVM\.gradle\caches\transforms-1\files-1.1\runtime-1.1.1.aar\ab6829c078b704e1b4212ef9d7afc215\AndroidManifest.xml:17:1-22:12
MERGED from [com.android.support:documentfile:28.0.0] C:\Users\KrasnousovVM\.gradle\caches\transforms-1\files-1.1\documentfile-28.0.0.aar\46ebee46da6b47787a18bb393d9b7cff\AndroidManifest.xml:17:1-22:12
MERGED from [com.android.support:localbroadcastmanager:28.0.0] C:\Users\KrasnousovVM\.gradle\caches\transforms-1\files-1.1\localbroadcastmanager-28.0.0.aar\c07e852638006a5e57171456efe44a3c\AndroidManifest.xml:17:1-22:12
MERGED from [com.android.support:print:28.0.0] C:\Users\KrasnousovVM\.gradle\caches\transforms-1\files-1.1\print-28.0.0.aar\357f6c31f893affbbba9b7e7087f3f87\AndroidManifest.xml:17:1-22:12
MERGED from [com.android.support:interpolator:28.0.0] C:\Users\KrasnousovVM\.gradle\caches\transforms-1\files-1.1\interpolator-28.0.0.aar\e04a1f29aed85a8b648e9f84a3d579e0\AndroidManifest.xml:17:1-22:12
MERGED from [android.arch.lifecycle:viewmodel:1.1.1] C:\Users\KrasnousovVM\.gradle\caches\transforms-1\files-1.1\viewmodel-1.1.1.aar\6c95450f29a3b1b5ab43b5ed3bf93982\AndroidManifest.xml:17:1-22:12
MERGED from [android.arch.lifecycle:livedata:1.1.1] C:\Users\KrasnousovVM\.gradle\caches\transforms-1\files-1.1\livedata-1.1.1.aar\0916c7a16a57a22e45e9c6395bb74ef9\AndroidManifest.xml:17:1-22:12
MERGED from [android.arch.lifecycle:livedata-core:1.1.1] C:\Users\KrasnousovVM\.gradle\caches\transforms-1\files-1.1\livedata-core-1.1.1.aar\9b24e3ef596687bbacd979b3531ecf01\AndroidManifest.xml:17:1-22:12
MERGED from [android.arch.core:runtime:1.1.1] C:\Users\KrasnousovVM\.gradle\caches\transforms-1\files-1.1\runtime-1.1.1.aar\f7a60976b4c86f61519fbcd970aa13b5\AndroidManifest.xml:17:1-22:12
INJECTED from C:\Users\KrasnousovVM\Desktop\SPPtest\Application\src\main\AndroidManifest.xml:4:1-39:12
INJECTED from C:\Users\KrasnousovVM\Desktop\SPPtest\Application\src\main\AndroidManifest.xml:4:1-39:12
	package
		ADDED from C:\Users\KrasnousovVM\Desktop\SPPtest\Application\src\main\AndroidManifest.xml:5:5-44
	android:versionName
		ADDED from C:\Users\KrasnousovVM\Desktop\SPPtest\Application\src\main\AndroidManifest.xml:8:5-30
		INJECTED from C:\Users\KrasnousovVM\Desktop\SPPtest\Application\src\main\AndroidManifest.xml
		INJECTED from C:\Users\KrasnousovVM\Desktop\SPPtest\Application\src\main\AndroidManifest.xml
	xmlns:android
		ADDED from C:\Users\KrasnousovVM\Desktop\SPPtest\Application\src\main\AndroidManifest.xml:6:5-63
	android:versionCode
		ADDED from C:\Users\KrasnousovVM\Desktop\SPPtest\Application\src\main\AndroidManifest.xml:7:5-28
		INJECTED from C:\Users\KrasnousovVM\Desktop\SPPtest\Application\src\main\AndroidManifest.xml
		INJECTED from C:\Users\KrasnousovVM\Desktop\SPPtest\Application\src\main\AndroidManifest.xml
uses-permission#android.permission.BLUETOOTH_ADMIN
ADDED from C:\Users\KrasnousovVM\Desktop\SPPtest\Application\src\main\AndroidManifest.xml:12:5-73
	android:name
		ADDED from C:\Users\KrasnousovVM\Desktop\SPPtest\Application\src\main\AndroidManifest.xml:12:22-71
uses-permission#android.permission.BLUETOOTH
ADDED from C:\Users\KrasnousovVM\Desktop\SPPtest\Application\src\main\AndroidManifest.xml:13:5-67
	android:name
		ADDED from C:\Users\KrasnousovVM\Desktop\SPPtest\Application\src\main\AndroidManifest.xml:13:22-65
application
ADDED from C:\Users\KrasnousovVM\Desktop\SPPtest\Application\src\main\AndroidManifest.xml:15:5-37:19
MERGED from [com.android.support:support-compat:28.0.0] C:\Users\KrasnousovVM\.gradle\caches\transforms-1\files-1.1\support-compat-28.0.0.aar\11e4c36544f77bbb7e44d76f97ab51ee\AndroidManifest.xml:22:5-94
MERGED from [com.android.support:support-compat:28.0.0] C:\Users\KrasnousovVM\.gradle\caches\transforms-1\files-1.1\support-compat-28.0.0.aar\11e4c36544f77bbb7e44d76f97ab51ee\AndroidManifest.xml:22:5-94
MERGED from [com.android.support:versionedparcelable:28.0.0] C:\Users\KrasnousovVM\.gradle\caches\transforms-1\files-1.1\versionedparcelable-28.0.0.aar\26b73e0884b672588e92c63c086e6d86\AndroidManifest.xml:22:5-23:19
MERGED from [com.android.support:versionedparcelable:28.0.0] C:\Users\KrasnousovVM\.gradle\caches\transforms-1\files-1.1\versionedparcelable-28.0.0.aar\26b73e0884b672588e92c63c086e6d86\AndroidManifest.xml:22:5-23:19
	android:appComponentFactory
		ADDED from [com.android.support:support-compat:28.0.0] C:\Users\KrasnousovVM\.gradle\caches\transforms-1\files-1.1\support-compat-28.0.0.aar\11e4c36544f77bbb7e44d76f97ab51ee\AndroidManifest.xml:22:18-91
	android:label
		ADDED from C:\Users\KrasnousovVM\Desktop\SPPtest\Application\src\main\AndroidManifest.xml:18:9-41
	android:icon
		ADDED from C:\Users\KrasnousovVM\Desktop\SPPtest\Application\src\main\AndroidManifest.xml:17:9-45
	android:allowBackup
		ADDED from C:\Users\KrasnousovVM\Desktop\SPPtest\Application\src\main\AndroidManifest.xml:16:9-35
	android:theme
		ADDED from C:\Users\KrasnousovVM\Desktop\SPPtest\Application\src\main\AndroidManifest.xml:19:9-40
activity#com.example.android.bluetooth.MainActivity
ADDED from C:\Users\KrasnousovVM\Desktop\SPPtest\Application\src\main\AndroidManifest.xml:21:9-29:20
	android:label
		ADDED from C:\Users\KrasnousovVM\Desktop\SPPtest\Application\src\main\AndroidManifest.xml:24:13-45
	android:configChanges
		ADDED from C:\Users\KrasnousovVM\Desktop\SPPtest\Application\src\main\AndroidManifest.xml:23:13-63
	android:name
		ADDED from C:\Users\KrasnousovVM\Desktop\SPPtest\Application\src\main\AndroidManifest.xml:22:13-70
intent-filter#action:name:android.intent.action.MAIN+category:name:android.intent.category.LAUNCHER
ADDED from C:\Users\KrasnousovVM\Desktop\SPPtest\Application\src\main\AndroidManifest.xml:25:13-28:29
action#android.intent.action.MAIN
ADDED from C:\Users\KrasnousovVM\Desktop\SPPtest\Application\src\main\AndroidManifest.xml:26:17-68
	android:name
		ADDED from C:\Users\KrasnousovVM\Desktop\SPPtest\Application\src\main\AndroidManifest.xml:26:25-66
category#android.intent.category.LAUNCHER
ADDED from C:\Users\KrasnousovVM\Desktop\SPPtest\Application\src\main\AndroidManifest.xml:27:17-76
	android:name
		ADDED from C:\Users\KrasnousovVM\Desktop\SPPtest\Application\src\main\AndroidManifest.xml:27:27-74
activity#com.example.android.bluetooth.DeviceListActivity
ADDED from C:\Users\KrasnousovVM\Desktop\SPPtest\Application\src\main\AndroidManifest.xml:31:9-35:63
	android:label
		ADDED from C:\Users\KrasnousovVM\Desktop\SPPtest\Application\src\main\AndroidManifest.xml:34:13-50
	android:configChanges
		ADDED from C:\Users\KrasnousovVM\Desktop\SPPtest\Application\src\main\AndroidManifest.xml:33:13-63
	android:theme
		ADDED from C:\Users\KrasnousovVM\Desktop\SPPtest\Application\src\main\AndroidManifest.xml:35:13-61
	android:name
		ADDED from C:\Users\KrasnousovVM\Desktop\SPPtest\Application\src\main\AndroidManifest.xml:32:13-76
uses-sdk
INJECTED from C:\Users\KrasnousovVM\Desktop\SPPtest\Application\src\main\AndroidManifest.xml reason: use-sdk injection requested
INJECTED from C:\Users\KrasnousovVM\Desktop\SPPtest\Application\src\main\AndroidManifest.xml
INJECTED from C:\Users\KrasnousovVM\Desktop\SPPtest\Application\src\main\AndroidManifest.xml
MERGED from [com.android.support:support-v4:28.0.0] C:\Users\KrasnousovVM\.gradle\caches\transforms-1\files-1.1\support-v4-28.0.0.aar\0277d4b55e1064b4975feb2e12c086e8\AndroidManifest.xml:20:5-44
MERGED from [com.android.support:support-v4:28.0.0] C:\Users\KrasnousovVM\.gradle\caches\transforms-1\files-1.1\support-v4-28.0.0.aar\0277d4b55e1064b4975feb2e12c086e8\AndroidManifest.xml:20:5-44
MERGED from [com.android.support:gridlayout-v7:28.0.0] C:\Users\KrasnousovVM\.gradle\caches\transforms-1\files-1.1\gridlayout-v7-28.0.0.aar\83530c3beba55766acab77c06570f9c0\AndroidManifest.xml:20:5-44
MERGED from [com.android.support:gridlayout-v7:28.0.0] C:\Users\KrasnousovVM\.gradle\caches\transforms-1\files-1.1\gridlayout-v7-28.0.0.aar\83530c3beba55766acab77c06570f9c0\AndroidManifest.xml:20:5-44
MERGED from [com.android.support:cardview-v7:28.0.0] C:\Users\KrasnousovVM\.gradle\caches\transforms-1\files-1.1\cardview-v7-28.0.0.aar\eb0eb91d00b26e6a85ff26e153049782\AndroidManifest.xml:20:5-44
MERGED from [com.android.support:cardview-v7:28.0.0] C:\Users\KrasnousovVM\.gradle\caches\transforms-1\files-1.1\cardview-v7-28.0.0.aar\eb0eb91d00b26e6a85ff26e153049782\AndroidManifest.xml:20:5-44
MERGED from [com.android.support:appcompat-v7:28.0.0] C:\Users\KrasnousovVM\.gradle\caches\transforms-1\files-1.1\appcompat-v7-28.0.0.aar\4bcadea640c094cb993fb62aa500b7bc\AndroidManifest.xml:20:5-44
MERGED from [com.android.support:appcompat-v7:28.0.0] C:\Users\KrasnousovVM\.gradle\caches\transforms-1\files-1.1\appcompat-v7-28.0.0.aar\4bcadea640c094cb993fb62aa500b7bc\AndroidManifest.xml:20:5-44
MERGED from [com.android.support:support-media-compat:28.0.0] C:\Users\KrasnousovVM\.gradle\caches\transforms-1\files-1.1\support-media-compat-28.0.0.aar\57c737e5700f5ac9c984ba164fda6c06\AndroidManifest.xml:20:5-44
MERGED from [com.android.support:support-media-compat:28.0.0] C:\Users\KrasnousovVM\.gradle\caches\transforms-1\files-1.1\support-media-compat-28.0.0.aar\57c737e5700f5ac9c984ba164fda6c06\AndroidManifest.xml:20:5-44
MERGED from [com.android.support:support-fragment:28.0.0] C:\Users\KrasnousovVM\.gradle\caches\transforms-1\files-1.1\support-fragment-28.0.0.aar\d0990f1f12cd5036f5ce8022d1605522\AndroidManifest.xml:20:5-44
MERGED from [com.android.support:support-fragment:28.0.0] C:\Users\KrasnousovVM\.gradle\caches\transforms-1\files-1.1\support-fragment-28.0.0.aar\d0990f1f12cd5036f5ce8022d1605522\AndroidManifest.xml:20:5-44
MERGED from [com.android.support:animated-vector-drawable:28.0.0] C:\Users\KrasnousovVM\.gradle\caches\transforms-1\files-1.1\animated-vector-drawable-28.0.0.aar\e905455cc72c30713b08e7e79ddd4481\AndroidManifest.xml:20:5-44
MERGED from [com.android.support:animated-vector-drawable:28.0.0] C:\Users\KrasnousovVM\.gradle\caches\transforms-1\files-1.1\animated-vector-drawable-28.0.0.aar\e905455cc72c30713b08e7e79ddd4481\AndroidManifest.xml:20:5-44
MERGED from [com.android.support:support-core-ui:28.0.0] C:\Users\KrasnousovVM\.gradle\caches\transforms-1\files-1.1\support-core-ui-28.0.0.aar\c1dc3fe48e14409ee7622749164c0e71\AndroidManifest.xml:20:5-44
MERGED from [com.android.support:support-core-ui:28.0.0] C:\Users\KrasnousovVM\.gradle\caches\transforms-1\files-1.1\support-core-ui-28.0.0.aar\c1dc3fe48e14409ee7622749164c0e71\AndroidManifest.xml:20:5-44
MERGED from [com.android.support:support-core-utils:28.0.0] C:\Users\KrasnousovVM\.gradle\caches\transforms-1\files-1.1\support-core-utils-28.0.0.aar\e5896e9e846c91e1e824afc942d25c0d\AndroidManifest.xml:20:5-44
MERGED from [com.android.support:support-core-utils:28.0.0] C:\Users\KrasnousovVM\.gradle\caches\transforms-1\files-1.1\support-core-utils-28.0.0.aar\e5896e9e846c91e1e824afc942d25c0d\AndroidManifest.xml:20:5-44
MERGED from [com.android.support:support-vector-drawable:28.0.0] C:\Users\KrasnousovVM\.gradle\caches\transforms-1\files-1.1\support-vector-drawable-28.0.0.aar\ec97d6953ffa1fc752709f6e3f5d8896\AndroidManifest.xml:20:5-44
MERGED from [com.android.support:support-vector-drawable:28.0.0] C:\Users\KrasnousovVM\.gradle\caches\transforms-1\files-1.1\support-vector-drawable-28.0.0.aar\ec97d6953ffa1fc752709f6e3f5d8896\AndroidManifest.xml:20:5-44
MERGED from [com.android.support:loader:28.0.0] C:\Users\KrasnousovVM\.gradle\caches\transforms-1\files-1.1\loader-28.0.0.aar\bab09e5146163a046b285d06c2fe8cde\AndroidManifest.xml:20:5-44
MERGED from [com.android.support:loader:28.0.0] C:\Users\KrasnousovVM\.gradle\caches\transforms-1\files-1.1\loader-28.0.0.aar\bab09e5146163a046b285d06c2fe8cde\AndroidManifest.xml:20:5-44
MERGED from [com.android.support:viewpager:28.0.0] C:\Users\KrasnousovVM\.gradle\caches\transforms-1\files-1.1\viewpager-28.0.0.aar\f5f5f7aeeeb43ccd7aa786e1d7335fc6\AndroidManifest.xml:20:5-44
MERGED from [com.android.support:viewpager:28.0.0] C:\Users\KrasnousovVM\.gradle\caches\transforms-1\files-1.1\viewpager-28.0.0.aar\f5f5f7aeeeb43ccd7aa786e1d7335fc6\AndroidManifest.xml:20:5-44
MERGED from [com.android.support:coordinatorlayout:28.0.0] C:\Users\KrasnousovVM\.gradle\caches\transforms-1\files-1.1\coordinatorlayout-28.0.0.aar\2942100bbce7da16cb7155abf7b7b7b3\AndroidManifest.xml:20:5-44
MERGED from [com.android.support:coordinatorlayout:28.0.0] C:\Users\KrasnousovVM\.gradle\caches\transforms-1\files-1.1\coordinatorlayout-28.0.0.aar\2942100bbce7da16cb7155abf7b7b7b3\AndroidManifest.xml:20:5-44
MERGED from [com.android.support:drawerlayout:28.0.0] C:\Users\KrasnousovVM\.gradle\caches\transforms-1\files-1.1\drawerlayout-28.0.0.aar\4421c3cc81bdb327c9aadaa796867b2e\AndroidManifest.xml:20:5-44
MERGED from [com.android.support:drawerlayout:28.0.0] C:\Users\KrasnousovVM\.gradle\caches\transforms-1\files-1.1\drawerlayout-28.0.0.aar\4421c3cc81bdb327c9aadaa796867b2e\AndroidManifest.xml:20:5-44
MERGED from [com.android.support:slidingpanelayout:28.0.0] C:\Users\KrasnousovVM\.gradle\caches\transforms-1\files-1.1\slidingpanelayout-28.0.0.aar\7c2ccbbcdec8d54e8982ae5a7258a281\AndroidManifest.xml:20:5-44
MERGED from [com.android.support:slidingpanelayout:28.0.0] C:\Users\KrasnousovVM\.gradle\caches\transforms-1\files-1.1\slidingpanelayout-28.0.0.aar\7c2ccbbcdec8d54e8982ae5a7258a281\AndroidManifest.xml:20:5-44
MERGED from [com.android.support:customview:28.0.0] C:\Users\KrasnousovVM\.gradle\caches\transforms-1\files-1.1\customview-28.0.0.aar\4bfc0e25710dd9b1e95971bdb9d683ab\AndroidManifest.xml:20:5-44
MERGED from [com.android.support:customview:28.0.0] C:\Users\KrasnousovVM\.gradle\caches\transforms-1\files-1.1\customview-28.0.0.aar\4bfc0e25710dd9b1e95971bdb9d683ab\AndroidManifest.xml:20:5-44
MERGED from [com.android.support:swiperefreshlayout:28.0.0] C:\Users\KrasnousovVM\.gradle\caches\transforms-1\files-1.1\swiperefreshlayout-28.0.0.aar\71a9822e7b34919046b6cab294bcf280\AndroidManifest.xml:20:5-44
MERGED from [com.android.support:swiperefreshlayout:28.0.0] C:\Users\KrasnousovVM\.gradle\caches\transforms-1\files-1.1\swiperefreshlayout-28.0.0.aar\71a9822e7b34919046b6cab294bcf280\AndroidManifest.xml:20:5-44
MERGED from [com.android.support:asynclayoutinflater:28.0.0] C:\Users\KrasnousovVM\.gradle\caches\transforms-1\files-1.1\asynclayoutinflater-28.0.0.aar\59e7b0a40d14d8f7ec0086e34f3df656\AndroidManifest.xml:20:5-44
MERGED from [com.android.support:asynclayoutinflater:28.0.0] C:\Users\KrasnousovVM\.gradle\caches\transforms-1\files-1.1\asynclayoutinflater-28.0.0.aar\59e7b0a40d14d8f7ec0086e34f3df656\AndroidManifest.xml:20:5-44
MERGED from [com.android.support:support-compat:28.0.0] C:\Users\KrasnousovVM\.gradle\caches\transforms-1\files-1.1\support-compat-28.0.0.aar\11e4c36544f77bbb7e44d76f97ab51ee\AndroidManifest.xml:20:5-44
MERGED from [com.android.support:support-compat:28.0.0] C:\Users\KrasnousovVM\.gradle\caches\transforms-1\files-1.1\support-compat-28.0.0.aar\11e4c36544f77bbb7e44d76f97ab51ee\AndroidManifest.xml:20:5-44
MERGED from [com.android.support:versionedparcelable:28.0.0] C:\Users\KrasnousovVM\.gradle\caches\transforms-1\files-1.1\versionedparcelable-28.0.0.aar\26b73e0884b672588e92c63c086e6d86\AndroidManifest.xml:20:5-44
MERGED from [com.android.support:versionedparcelable:28.0.0] C:\Users\KrasnousovVM\.gradle\caches\transforms-1\files-1.1\versionedparcelable-28.0.0.aar\26b73e0884b672588e92c63c086e6d86\AndroidManifest.xml:20:5-44
MERGED from [com.android.support:cursoradapter:28.0.0] C:\Users\KrasnousovVM\.gradle\caches\transforms-1\files-1.1\cursoradapter-28.0.0.aar\2e179ff4b1454da7f0933687ef3f6d60\AndroidManifest.xml:20:5-44
MERGED from [com.android.support:cursoradapter:28.0.0] C:\Users\KrasnousovVM\.gradle\caches\transforms-1\files-1.1\cursoradapter-28.0.0.aar\2e179ff4b1454da7f0933687ef3f6d60\AndroidManifest.xml:20:5-44
MERGED from [android.arch.lifecycle:runtime:1.1.1] C:\Users\KrasnousovVM\.gradle\caches\transforms-1\files-1.1\runtime-1.1.1.aar\ab6829c078b704e1b4212ef9d7afc215\AndroidManifest.xml:20:5-44
MERGED from [android.arch.lifecycle:runtime:1.1.1] C:\Users\KrasnousovVM\.gradle\caches\transforms-1\files-1.1\runtime-1.1.1.aar\ab6829c078b704e1b4212ef9d7afc215\AndroidManifest.xml:20:5-44
MERGED from [com.android.support:documentfile:28.0.0] C:\Users\KrasnousovVM\.gradle\caches\transforms-1\files-1.1\documentfile-28.0.0.aar\46ebee46da6b47787a18bb393d9b7cff\AndroidManifest.xml:20:5-44
MERGED from [com.android.support:documentfile:28.0.0] C:\Users\KrasnousovVM\.gradle\caches\transforms-1\files-1.1\documentfile-28.0.0.aar\46ebee46da6b47787a18bb393d9b7cff\AndroidManifest.xml:20:5-44
MERGED from [com.android.support:localbroadcastmanager:28.0.0] C:\Users\KrasnousovVM\.gradle\caches\transforms-1\files-1.1\localbroadcastmanager-28.0.0.aar\c07e852638006a5e57171456efe44a3c\AndroidManifest.xml:20:5-44
MERGED from [com.android.support:localbroadcastmanager:28.0.0] C:\Users\KrasnousovVM\.gradle\caches\transforms-1\files-1.1\localbroadcastmanager-28.0.0.aar\c07e852638006a5e57171456efe44a3c\AndroidManifest.xml:20:5-44
MERGED from [com.android.support:print:28.0.0] C:\Users\KrasnousovVM\.gradle\caches\transforms-1\files-1.1\print-28.0.0.aar\357f6c31f893affbbba9b7e7087f3f87\AndroidManifest.xml:20:5-44
MERGED from [com.android.support:print:28.0.0] C:\Users\KrasnousovVM\.gradle\caches\transforms-1\files-1.1\print-28.0.0.aar\357f6c31f893affbbba9b7e7087f3f87\AndroidManifest.xml:20:5-44
MERGED from [com.android.support:interpolator:28.0.0] C:\Users\KrasnousovVM\.gradle\caches\transforms-1\files-1.1\interpolator-28.0.0.aar\e04a1f29aed85a8b648e9f84a3d579e0\AndroidManifest.xml:20:5-44
MERGED from [com.android.support:interpolator:28.0.0] C:\Users\KrasnousovVM\.gradle\caches\transforms-1\files-1.1\interpolator-28.0.0.aar\e04a1f29aed85a8b648e9f84a3d579e0\AndroidManifest.xml:20:5-44
MERGED from [android.arch.lifecycle:viewmodel:1.1.1] C:\Users\KrasnousovVM\.gradle\caches\transforms-1\files-1.1\viewmodel-1.1.1.aar\6c95450f29a3b1b5ab43b5ed3bf93982\AndroidManifest.xml:20:5-44
MERGED from [android.arch.lifecycle:viewmodel:1.1.1] C:\Users\KrasnousovVM\.gradle\caches\transforms-1\files-1.1\viewmodel-1.1.1.aar\6c95450f29a3b1b5ab43b5ed3bf93982\AndroidManifest.xml:20:5-44
MERGED from [android.arch.lifecycle:livedata:1.1.1] C:\Users\KrasnousovVM\.gradle\caches\transforms-1\files-1.1\livedata-1.1.1.aar\0916c7a16a57a22e45e9c6395bb74ef9\AndroidManifest.xml:20:5-44
MERGED from [android.arch.lifecycle:livedata:1.1.1] C:\Users\KrasnousovVM\.gradle\caches\transforms-1\files-1.1\livedata-1.1.1.aar\0916c7a16a57a22e45e9c6395bb74ef9\AndroidManifest.xml:20:5-44
MERGED from [android.arch.lifecycle:livedata-core:1.1.1] C:\Users\KrasnousovVM\.gradle\caches\transforms-1\files-1.1\livedata-core-1.1.1.aar\9b24e3ef596687bbacd979b3531ecf01\AndroidManifest.xml:20:5-44
MERGED from [android.arch.lifecycle:livedata-core:1.1.1] C:\Users\KrasnousovVM\.gradle\caches\transforms-1\files-1.1\livedata-core-1.1.1.aar\9b24e3ef596687bbacd979b3531ecf01\AndroidManifest.xml:20:5-44
MERGED from [android.arch.core:runtime:1.1.1] C:\Users\KrasnousovVM\.gradle\caches\transforms-1\files-1.1\runtime-1.1.1.aar\f7a60976b4c86f61519fbcd970aa13b5\AndroidManifest.xml:20:5-44
MERGED from [android.arch.core:runtime:1.1.1] C:\Users\KrasnousovVM\.gradle\caches\transforms-1\files-1.1\runtime-1.1.1.aar\f7a60976b4c86f61519fbcd970aa13b5\AndroidManifest.xml:20:5-44
INJECTED from C:\Users\KrasnousovVM\Desktop\SPPtest\Application\src\main\AndroidManifest.xml
INJECTED from C:\Users\KrasnousovVM\Desktop\SPPtest\Application\src\main\AndroidManifest.xml
	android:targetSdkVersion
		INJECTED from C:\Users\KrasnousovVM\Desktop\SPPtest\Application\src\main\AndroidManifest.xml
		ADDED from C:\Users\KrasnousovVM\Desktop\SPPtest\Application\src\main\AndroidManifest.xml
		INJECTED from C:\Users\KrasnousovVM\Desktop\SPPtest\Application\src\main\AndroidManifest.xml
	android:minSdkVersion
		INJECTED from C:\Users\KrasnousovVM\Desktop\SPPtest\Application\src\main\AndroidManifest.xml
		ADDED from C:\Users\KrasnousovVM\Desktop\SPPtest\Application\src\main\AndroidManifest.xml
		INJECTED from C:\Users\KrasnousovVM\Desktop\SPPtest\Application\src\main\AndroidManifest.xml
